ffec0355c5e0bd210aa7da6e91845979a5f5d893c7703dba4afccfbc80613b728689fbe91d0327542faaae718940f7eb0f842b3cc7c57dddeb22b15c5f79ba2a  icu4c-75_1-data-bin-b.zip
b4dbc0986c241e43d66a90c6cf723dd8fd66281416d7d28010c952a895e8f166d980f918754b191a1e2ab468484b7d2ba2d4f6308880ef7f8bc2eecbc94844b9  icu4c-75_1-data-bin-l.zip
fd0d0079d01cb089f2f34c52ab9374fa1ee1ba0c4a4969a3d15afc695d734ff7b9d0db1c99446fcd3733ad01f718003beba00705426692aca6ffe47cef19cc30  icu4c-75_1-data.zip
9c262812af1018fc9b2d40fca45251d2235051a2ebd3c47ebb70e8c4c299127cd3856d1bff4c90ea41096cc826b45753731d5821823ca5105f5abc4036c02d14  icu4c-75_1-docs.zip
ebdf33060fec38f4eb0b49ed7b6658c9bc4f5d3b4439e9950f38ccce06da7033d5e2ff00b50fc30fbde376c7753b7e4a315d8b716b0cc6091a209e97c6fd0ac1  icu4c-75_1-src.zip
66b43fbd8b247b645ffa4cae3ab1131d9594ce6fdfc86439a10ef00aeee72333f578808d39883890a976611149f1a329991e97a595a1923921442aefaed96273  icu4c-75_1-Fedora_Linux36-x64.tgz
70ea842f0d5f1f6c6b65696ac71d96848c4873f4d794bebc40fd87af2ad4ef064c61a786bf7bc430ce4713ec6deabb8cc1a8cc0212eab148cee2d498a3683e45  icu4c-75_1-src.tgz
6215e03c47f1c7c19c9b0698acd1b6fa4524e7e711e86fdf3cfa7061a603c0100f9059b316e5a1fd544e250c07284c7076e339a59471b88fda384c9d08992c40  icu-rrelease-75-1-x86_64-pc-linux-gnu-Ubuntu-22.04.tgz
